{
  "meta": {
    "testCaseId": "test-regstration-010",
    "entity": "regstration",
    "operation": "get",
    "date": "26-02-2021"
  },
  "data": {
    "id": "9fee01bc-8fd7-425a-8fa5-ce4390ac421c"
 },
  "response": {
    "statusCode": 200,
    "message": "The entity has been received successfully with Emergency registration Type. ",
    "responseObject": {

    }
  }
  
}