{
  "meta": {
    "testCaseId": "test-regstration-005",
    "entity": "regstration",
    "operation": "post",
    "date": "25-02-2021"
  },
  "data": {
"patregi": {
"code": "Auto generated",
"dob": "2001/02/25",
"firstName": "Prakash",
"fromTime": "16:58",
"gender": "MALE",
"lastName": "Patel",
"newborn": false,
"patientprefixId": "e0666e27-6600-4642-912c-cf7122baac4e",
"patienttypeId": "3b68a98a-6b63-4f02-b2ad-f24ae3cdadf2",
"registrationDate": "2021-03-19T16:58:00.000Z",
"registrationtypeId": "40cd00a7-7211-4061-b949-c95e469ab7a5",
"status": "ACTIVE",
"validTill": "2022-02-24T18:30:00.000Z"
},
"patientSignatureDetail": {
"imagePath": ""
},
"patientReferralDetails": {
"referredToType": "Doctor"
},
"patientPhotographDetail": {
"imagePath": "./assets/images/avatars/man-shape.png"
},
"patientPersonalInfo": {
"maritalStatusId": "83de2da8-ceae-4097-bee7-0da58460d6b7",
"nationalityId": "489944c1-d47d-4bc1-922e-d013932309c9",
"occupationId": "0597a78e-359d-48eb-8d4e-33c2938de895",
"religionId": "fa99e642-443d-471c-83a8-8e0c2a5cee47"
},
"patientInsuranceCardImage": {},
"patientPersonalIdentificationDetails": [],
"patientGuardianDetails": {
"guardianFirstName": "Hitesh",
"guardianLastName": "Sindhi",
"guardianPrefixId": "e0666e27-6600-4642-912c-cf7122baac4e",
"guardianRelationshipSalutation": "40384628-43ea-4d6e-936f-9e197981edce"
},
"patientFingerPrintDetail": {
"imageList": []
},
"patientEmergencyContactDetails": {
"cityId": "7bb8743c-cff4-4fbc-9345-ea31f3296aec",
"contactPersonFirstName": "Harshad Bhai",
"contactPersonLastName": "Sendhav",
"contactType": "EmergencyDetail",
"countryId": "489944c1-d47d-4bc1-922e-d013932309c9",
"districtId": "00000000-0000-0000-0000-000000000000",
"houseNumber": "401",
"mobileNo": "9898078512",
"pincode": "380009",
"prefixId": "e0666e27-6600-4642-912c-cf7122baac4e",
"relationshipId": "40384628-43ea-4d6e-936f-9e197981edce",
"residentType": "Urban",
"stateId": "43c58f74-d036-4bd2-98f2-b166d1772943",
"street": "Ganesh Plaza"
},
"patientDeathDetail": {
"deceased": false
},
"patientContactDetail": {
"cityId": "7bb8743c-cff4-4fbc-9345-ea31f3296aec",
"contactType": "ContactDetail",
"countryId": "489944c1-d47d-4bc1-922e-d013932309c9",
"district": "00000000-0000-0000-0000-000000000000",
"districtId": "00000000-0000-0000-0000-000000000000",
"houseNumber": "401",
"mobileNo": "9898004455",
"pincode": "380009",
"residentType": "Urban",
"stateId": "43c58f74-d036-4bd2-98f2-b166d1772943",
"street": "Ganesh Plaza"
}
},
  "response": {
    "statusCode": 200,
    "message": "The entity has been received successfully With Emergency Registration Type with all sections. ",
    "responseObject": {

    }
  }
  
}