{
    "meta":{
	    "testCaseId": "test-relationship-001",
	    "entity"    : "relationship",
	    "operation" : "get",
	    "date"      : "31-march-2020"
	},
	"data": {
		"id": "249e21a6-358f-48eb-a080-8662c4463145"

	},
	"response": {
		"statusCode": 200,
		"message": "The entity has been received successfully",
		"responseObject": {

			"code": "00001",
			"displayName": "code",
			"name": "code",
			"relation": "code",
			"status": "ACTIVE",
			"statusString": "ACTIVE",
			"tenantId": "60333984-86bb-47e0-910c-2edfd42500bd"
		}
			
	}
}