  {
    "meta": {
      "testCaseId": "test-drugclass-002",
      "entity": "drugclass",
      "operation": "put",
      "date": "10-december-2020"
    },
    "data": {

      "id": "b1c50436-df20-4c80-8eef-d2c6d91db743",
      "code": "00004",
      "displayName": "put4",
      "drugGenerics": [],
      "name": null,
      "narcoticDrug": true,
      "status": "ACTIVE",
      "tenantId": "60333984-86bb-47e0-910c-2edfd42500bd"

    },
    "response": {
      "statusCode": 200,
      "message": "The entity has been received successfully",
      "responseObject": {

        "id": "b1c50436-df20-4c80-8eef-d2c6d91db743",
        "code": "00004",
        "displayName": "put4",
        "drugGenerics": [],
        "name": null,
        "narcoticDrug": true,
        "status": "ACTIVE",
        "tenantId": "60333984-86bb-47e0-910c-2edfd42500bd"

      }
    }
  }